<?php
 	
$num=$_POST['n'];
	
if($num%2==0)
	 
{
	   
echo $num." is even number";	
	 
}
	
else
	
{
	   
echo $num." is odd number";
	
} 
 
?>
	
<body>
	
<form method="post">
	   
Enter Your number<input type="text" name="n"/><hr/>
	    
<input type="submit"/>
	 
</form>
 
</body>





<?php
 $_post []	
 
?>

<body>


<form method= "post">


<input type="text" location="Location" placeholder="Please Enter your Location">
<br>
<input type="submit" value="submit Data" >

</form>

</body>




<?php

$date=$_POST['location'];






if($date == 'Friday'){
echo "HAVE A NICE WEEKEND";
}else{
    "HAVE A NICE DAY!";
}



?>

<body>


<form >


<input type="text" location="location">
<br>
<input type="submit" value="submit Data" >

</form>

</body>



$date= "Friday";






if( $date == 'Friday'){
echo  "HAVE A NICE WEEKEND";
}else{
    echo "HAVE A NICE DAY!";
}
